TD2_SigSimu/my_simu_trace.vcd
$date
     Apr 24, 2019       14:37:48
$end

$version
 SystemC 2.3.3-Accellera --- Apr 16 2019 14:01:47
$end

$timescale
     1 ns
$end

$scope module SystemC $end
$var wire   32  aaaaa  t [31:0]  $end
$upscope $end
$enddefinitions  $end

$comment
All initial values are dumped below at time 0 sec = 0 timescale units.
$end

$dumpvars
b0 aaaaa
$end

#10
b1 aaaaa

#20
b10 aaaaa

#30
b11 aaaaa

#40
b100 aaaaa

#50
b101 aaaaa

#60
b110 aaaaa

#70
b111 aaaaa

#80
b1000 aaaaa

#90
b1001 aaaaa

#100
b1010 aaaaa

